%YAML 1.1
%TAG !u! tag:unity3d.com,2011:
--- !u!114 &11400000
MonoBehaviour:
  m_ObjectHideFlags: 0
  m_CorrespondingSourceObject: {fileID: 0}
  m_PrefabInstance: {fileID: 0}
  m_PrefabAsset: {fileID: 0}
  m_GameObject: {fileID: 0}
  m_Enabled: 1
  m_EditorHideFlags: 0
  m_Script: {fileID: 11500000, guid: c65bbe5e96f393748a56d95a68f50d02, type: 3}
  m_Name: White
  m_EditorClassIdentifier: 
  colorName: White
  red: 255
  green: 255
  blue: 255
  alpha: 255
  hex: FFFFFF
