[
	{
		"nodeId": "7820100d-7396-4a01-9209-40bbbabf3085",
		"nodeType": 2,
		"nodeTitle": "Branching Node",
		"questionId": "2569812f-ea92-4859-9edc-259c23ef6342",
		"questionText": "Please select a type of node to visit.",
		"questionChoices": [
			{
				"choiceId": "3579fe03-c0ea-46bd-af66-f8f80f75565c",
				"orderId": 6,
				"choiceText": "Go To Text Response"
			},
			{
				"choiceId": "c2133332-4c72-4dca-932f-34067d0235f6",
				"orderId": 1,
				"choiceText": "Go To Narrative Node"
			},
			{
				"choiceId": "06e6bea5-b77f-4638-8462-b1ccf3f34a41",
				"orderId": 4,
				"choiceText": "Go To MCQ Node"
			},
			{
				"choiceId": "a722a5c1-045e-4b92-ae0b-c8075dce13ec",
				"orderId": 5,
				"choiceText": "Go To Inquiry Node"
			},
			{
				"choiceId": "6b2346ee-d4bd-4bfb-9979-bba08e0e08f8",
				"orderId": 2,
				"choiceText": "Answer B",
				"feedback": "You selected answer B"
			},
			{
				"choiceId": "2de59225-9d5f-450d-a7e8-723583769219",
				"orderId": 3,
				"choiceText": "Answer C",
				"feedback": "You selected answer C"
			}
		]
	},
	{
		"nodeId": "c1486ccf-570e-48f1-8f82-8e202e8193a1",
		"nodeType": 5,
		"nodeTitle": "Inquiry Node",
		"questionId": "90d6b28c-5872-4170-8e4a-999f4370e946",
		"questionText": "Prompt to ask the user to select an inquiry.",
		"questionChoices": [
			{
				"choiceId": "4e4463c6-f201-4fe2-bd3a-78c391c98cf9",
				"orderId": 3,
				"choiceText": "Query C",
				"feedback": "This is query C feedback"
			},
			{
				"choiceId": "0964d105-5333-4d4b-9ea5-ead8e4fb59f2",
				"orderId": 1,
				"choiceText": "Query A",
				"feedback": "This is query A feedback"
			},
			{
				"choiceId": "61b18e44-e630-44b2-bfc1-8ac6da643337",
				"orderId": 2,
				"choiceText": "Query B",
				"feedback": "This is query B feedback"
			}
		]
	},
	{
		"nodeId": "9081d098-9c82-4109-a9ce-4098bce36d98",
		"nodeType": 6,
		"nodeTitle": "Text Response Node",
		"questionId": "9ee732d2-1d93-4914-91b3-69ca7cc6e59c",
		"questionText": "Prompt text. Please answer the question in the text box provided."
	},
	{
		"nodeId": "22b008d9-995c-4377-a98c-de892c21e6ce",
		"nodeType": 0,
		"nodeTitle": "Narrative Node",
		"questionId": "b76ba00b-3e34-4ef4-9593-3947d07e1318"
	},
	{
		"nodeId": "34529760-de44-479a-bb21-e0e2ebe89c09",
		"nodeType": 0,
		"nodeTitle": "End Node"
	},
	{
		"nodeId": "7b4bad05-7200-4dd8-9648-8399ead1baa2",
		"nodeType": 1,
		"nodeTitle": "MCQ Node",
		"questionId": "3d50c301-d9ed-47b0-a1ef-3744d987e9a3"
	},
	{
		"nodeId": "b3385770-872b-4758-b966-3e390bcbb196",
		"nodeType": 0,
		"nodeTitle": "Start Node"
	}
]